	Drer	Eluc	Gacu	Hhuc	Hsap	Locu	Mmus	Okis	Olat	Omyk	Salp	Ssal	Tthy
Number of genes	30312	23798	20787	50671	23312	18341	22982	36349	19699	42734	36422	48589	62583
Number of genes in orthogroups	27375	23354	19580	41835	21300	17703	20163	35083	18484	41054	35088	45808	45016
Number of unassigned genes	2937	444	1207	8836	2012	638	2819	1266	1215	1680	1334	2781	17567
Percentage of genes in orthogroups	90.3	98.1	94.2	82.6	91.4	96.5	87.7	96.5	93.8	96.1	96.3	94.3	71.9
Percentage of unassigned genes	9.7	1.9	5.8	17.4	8.6	3.5	12.3	3.5	6.2	3.9	3.7	5.7	28.1
Number of orthogroups containing species	15655	16679	14374	17969	15458	14720	15359	18132	13868	18862	17888	19804	19496
Percentage of orthogroups containing species	61.9	66.0	56.8	71.1	61.1	58.2	60.7	71.7	54.8	74.6	70.7	78.3	77.1
Number of species-specific orthogroups	54	4	8	33	14	7	13	4	8	7	2	3	67
Number of genes in species-specific orthogroups	312	34	21	126	72	41	159	9	40	22	4	6	221
Percentage of genes in species-specific orthogroups	1.0	0.1	0.1	0.2	0.3	0.2	0.7	0.0	0.2	0.1	0.0	0.0	0.4


Number of genes per-species in orthogroup	Number of orthogroups	Number of orthogroups	Number of orthogroups	Number of orthogroups	Number of orthogroups	Number of orthogroups	Number of orthogroups	Number of orthogroups	Number of orthogroups	Number of orthogroups	Number of orthogroups	Number of orthogroups	Number of orthogroups
'0	9631	8607	10912	7317	9828	10566	9927	7154	11418	6424	7398	5482	5790
'1	9801	12465	11113	8147	12877	13042	13294	7829	10948	7072	7501	7182	7775
'2	3717	3287	2540	5107	1756	1246	1432	7038	2268	7571	7093	7641	6496
'3	1212	502	415	2064	374	245	305	1672	384	1791	1677	1958	2319
'4	453	193	139	1136	138	83	113	1060	110	1512	1064	1699	1409
'5	174	82	54	513	77	29	53	219	56	352	230	495	578
'6	93	50	39	305	47	18	30	130	28	216	136	292	341
'7	40	23	16	174	49	13	19	53	13	101	57	161	152
'8	28	13	12	128	44	7	18	42	16	59	29	83	137
'9	18	8	6	87	15	8	13	21	5	36	26	74	76
'10	9	11	6	55	18	2	6	18	7	29	22	34	49
11-15	47	24	16	138	22	7	26	25	16	63	27	103	95
16-20	22	8	5	43	12	10	20	7	5	21	8	31	33
21-50	34	12	10	66	25	8	27	17	12	31	18	45	27
51-100	7	1	3	6	2	2	2	1	0	8	0	6	6
101-150	0	0	0	0	2	0	1	0	0	0	0	0	3
151-200	0	0	0	0	0	0	0	0	0	0	0	0	0
201-500	0	0	0	0	0	0	0	0	0	0	0	0	0
501-1000	0	0	0	0	0	0	0	0	0	0	0	0	0
'1001+	0	0	0	0	0	0	0	0	0	0	0	0	0

Number of genes per-species in orthogroup	Percentage of orthogroups	Percentage of orthogroups	Percentage of orthogroups	Percentage of orthogroups	Percentage of orthogroups	Percentage of orthogroups	Percentage of orthogroups	Percentage of orthogroups	Percentage of orthogroups	Percentage of orthogroups	Percentage of orthogroups	Percentage of orthogroups	Percentage of orthogroups
'0	38.1	34.0	43.2	28.9	38.9	41.8	39.3	28.3	45.2	25.4	29.3	21.7	22.9
'1	38.8	49.3	43.9	32.2	50.9	51.6	52.6	31.0	43.3	28.0	29.7	28.4	30.7
'2	14.7	13.0	10.0	20.2	6.9	4.9	5.7	27.8	9.0	29.9	28.1	30.2	25.7
'3	4.8	2.0	1.6	8.2	1.5	1.0	1.2	6.6	1.5	7.1	6.6	7.7	9.2
'4	1.8	0.8	0.5	4.5	0.5	0.3	0.4	4.2	0.4	6.0	4.2	6.7	5.6
'5	0.7	0.3	0.2	2.0	0.3	0.1	0.2	0.9	0.2	1.4	0.9	2.0	2.3
'6	0.4	0.2	0.2	1.2	0.2	0.1	0.1	0.5	0.1	0.9	0.5	1.2	1.3
'7	0.2	0.1	0.1	0.7	0.2	0.1	0.1	0.2	0.1	0.4	0.2	0.6	0.6
'8	0.1	0.1	0.0	0.5	0.2	0.0	0.1	0.2	0.1	0.2	0.1	0.3	0.5
'9	0.1	0.0	0.0	0.3	0.1	0.0	0.1	0.1	0.0	0.1	0.1	0.3	0.3
'10	0.0	0.0	0.0	0.2	0.1	0.0	0.0	0.1	0.0	0.1	0.1	0.1	0.2
11-15	0.2	0.1	0.1	0.5	0.1	0.0	0.1	0.1	0.1	0.2	0.1	0.4	0.4
16-20	0.1	0.0	0.0	0.2	0.0	0.0	0.1	0.0	0.0	0.1	0.0	0.1	0.1
21-50	0.1	0.0	0.0	0.3	0.1	0.0	0.1	0.1	0.0	0.1	0.1	0.2	0.1
51-100	0.0	0.0	0.0	0.0	0.0	0.0	0.0	0.0	0.0	0.0	0.0	0.0	0.0
101-150	0.0	0.0	0.0	0.0	0.0	0.0	0.0	0.0	0.0	0.0	0.0	0.0	0.0
151-200	0.0	0.0	0.0	0.0	0.0	0.0	0.0	0.0	0.0	0.0	0.0	0.0	0.0
201-500	0.0	0.0	0.0	0.0	0.0	0.0	0.0	0.0	0.0	0.0	0.0	0.0	0.0
501-1000	0.0	0.0	0.0	0.0	0.0	0.0	0.0	0.0	0.0	0.0	0.0	0.0	0.0
'1001+	0.0	0.0	0.0	0.0	0.0	0.0	0.0	0.0	0.0	0.0	0.0	0.0	0.0

Number of genes per-species in orthogroup	Number of genes	Number of genes	Number of genes	Number of genes	Number of genes	Number of genes	Number of genes	Number of genes	Number of genes	Number of genes	Number of genes	Number of genes	Number of genes
'0	0	0	0	0	0	0	0	0	0	0	0	0	0
'1	9801	12465	11113	8147	12877	13042	13294	7829	10948	7072	7501	7182	7775
'2	7434	6574	5080	10214	3512	2492	2864	14076	4536	15142	14186	15282	12992
'3	3636	1506	1245	6192	1122	735	915	5016	1152	5373	5031	5874	6957
'4	1812	772	556	4544	552	332	452	4240	440	6048	4256	6796	5636
'5	870	410	270	2565	385	145	265	1095	280	1760	1150	2475	2890
'6	558	300	234	1830	282	108	180	780	168	1296	816	1752	2046
'7	280	161	112	1218	343	91	133	371	91	707	399	1127	1064
'8	224	104	96	1024	352	56	144	336	128	472	232	664	1096
'9	162	72	54	783	135	72	117	189	45	324	234	666	684
'10	90	110	60	550	180	20	60	180	70	290	220	340	490
11-15	602	304	201	1717	287	83	334	304	204	779	335	1281	1183
16-20	391	142	88	749	210	181	362	119	87	365	141	553	583
21-50	1035	375	270	1940	753	212	789	495	335	893	587	1418	823
51-100	480	59	201	362	104	134	152	53	0	533	0	398	442
101-150	0	0	0	0	206	0	102	0	0	0	0	0	355
151-200	0	0	0	0	0	0	0	0	0	0	0	0	0
201-500	0	0	0	0	0	0	0	0	0	0	0	0	0
501-1000	0	0	0	0	0	0	0	0	0	0	0	0	0
'1001+	0	0	0	0	0	0	0	0	0	0	0	0	0

Number of genes per-species in orthogroup	Percentage of genes	Percentage of genes	Percentage of genes	Percentage of genes	Percentage of genes	Percentage of genes	Percentage of genes	Percentage of genes	Percentage of genes	Percentage of genes	Percentage of genes	Percentage of genes	Percentage of genes
'0	0.0	0.0	0.0	0.0	0.0	0.0	0.0	0.0	0.0	0.0	0.0	0.0	0.0
'1	32.3	52.4	53.5	16.1	55.2	71.1	57.8	21.5	55.6	16.5	20.6	14.8	12.4
'2	24.5	27.6	24.4	20.2	15.1	13.6	12.5	38.7	23.0	35.4	38.9	31.5	20.8
'3	12.0	6.3	6.0	12.2	4.8	4.0	4.0	13.8	5.8	12.6	13.8	12.1	11.1
'4	6.0	3.2	2.7	9.0	2.4	1.8	2.0	11.7	2.2	14.2	11.7	14.0	9.0
'5	2.9	1.7	1.3	5.1	1.7	0.8	1.2	3.0	1.4	4.1	3.2	5.1	4.6
'6	1.8	1.3	1.1	3.6	1.2	0.6	0.8	2.1	0.9	3.0	2.2	3.6	3.3
'7	0.9	0.7	0.5	2.4	1.5	0.5	0.6	1.0	0.5	1.7	1.1	2.3	1.7
'8	0.7	0.4	0.5	2.0	1.5	0.3	0.6	0.9	0.6	1.1	0.6	1.4	1.8
'9	0.5	0.3	0.3	1.5	0.6	0.4	0.5	0.5	0.2	0.8	0.6	1.4	1.1
'10	0.3	0.5	0.3	1.1	0.8	0.1	0.3	0.5	0.4	0.7	0.6	0.7	0.8
11-15	2.0	1.3	1.0	3.4	1.2	0.5	1.5	0.8	1.0	1.8	0.9	2.6	1.9
16-20	1.3	0.6	0.4	1.5	0.9	1.0	1.6	0.3	0.4	0.9	0.4	1.1	0.9
21-50	3.4	1.6	1.3	3.8	3.2	1.2	3.4	1.4	1.7	2.1	1.6	2.9	1.3
51-100	1.6	0.2	1.0	0.7	0.4	0.7	0.7	0.1	0.0	1.2	0.0	0.8	0.7
101-150	0.0	0.0	0.0	0.0	0.9	0.0	0.4	0.0	0.0	0.0	0.0	0.0	0.6
151-200	0.0	0.0	0.0	0.0	0.0	0.0	0.0	0.0	0.0	0.0	0.0	0.0	0.0
201-500	0.0	0.0	0.0	0.0	0.0	0.0	0.0	0.0	0.0	0.0	0.0	0.0	0.0
501-1000	0.0	0.0	0.0	0.0	0.0	0.0	0.0	0.0	0.0	0.0	0.0	0.0	0.0
'1001+	0.0	0.0	0.0	0.0	0.0	0.0	0.0	0.0	0.0	0.0	0.0	0.0	0.0
